/* XPM */
static char * close_inactive_xpm[] = {
"40 40 6 1",
" 	c None",
".	c #654e00",
"+	c #BBBDBF",
"@	c #BABCBE",
"#	c #B9BBBD",
"$	c #BCBEC0",
"........................................",
"........................................",
"........................................",
"........................................",
"........................................",
"........................................",
"........................................",
"........................................",
"........+@++++++++++++++++++++@+........",
"........@#@@@@@@@@@@@@@@@@@@@@#@........",
"........+@$$$$$$$$$$$$$$$$$$$$@+........",
"........+@$$$$$$$$$$$$$$$$$$$$@+........",
"........+@$$$$$$$$$$$$$$$$$$$$@+........",
"........+@$$$$$$$$$$$$$$$$$$$$@+........",
"........+@$$$$$$$$$$$$$$$$$$$$@+........",
"........+@$$$$$$$$$$$$$$$$$$$$@+........",
"........+@$$$$$$$$$$$$$$$$$$$$@+........",
"........+@$$$$$$$$$$$$$$$$$$$$@+........",
"........+@$$$$$$$$$$$$$$$$$$$$@+........",
"........+@$$$$$$$$$$$$$$$$$$$$@+........",
"........+@$$$$$$$$$$$$$$$$$$$$@+........",
"........+@$$$$$$$$$$$$$$$$$$$$@+........",
"........+@$$$$$$$$$$$$$$$$$$$$@+........",
"........+@$$$$$$$$$$$$$$$$$$$$@+........",
"........+@$$$$$$$$$$$$$$$$$$$$@+........",
"........+@$$$$$$$$$$$$$$$$$$$$@+........",
"........+@$$$$$$$$$$$$$$$$$$$$@+........",
"........+@$$$$$$$$$$$$$$$$$$$$@+........",
"........+@$$$$$$$$$$$$$$$$$$$$@+........",
"........+@$$$$$$$$$$$$$$$$$$$$@+........",
"........@#@@@@@@@@@@@@@@@@@@@@#@........",
"........+@++++++++++++++++++++@+........",
"........................................",
"........................................",
"........................................",
"........................................",
"........................................",
"........................................",
"........................................",
"........................................"};
