/* XPM */
static char * maximize_toggled_active_xpm[] = {
"40 40 5 1",
" 	c None",
".	c #000000",
"+	c #654E00",
"@	c #38C500",
"#	c #ECEDEE",
"........................................",
"++++++++++++++++++++++++++++++++++++++++",
"++++++++++++++++++++++++++++++++++++++++",
"++++++++++++++++++++++++++++++++++++++++",
"++++++++++++++++++++++++++++++++++++++++",
"++++++++++++++++++++++++++++++++++++++++",
"++++++++++++++++++++++++++++++++++++++++",
"++++++++++++++++++++++++++++++++++++++++",
"++++++++@@@@@@@@@@@@@@@@@@@@@@@@++++++++",
"++++++++@@@@@@@@@@@@@@@@@@@@@@@@++++++++",
"++++++++@@###############@@@@@@@++++++++",
"++++++++@@###############@@@@@@@++++++++",
"++++++++@@###############@@@@@@@++++++++",
"++++++++@@###@@@@@@@@@###@@@@@@@++++++++",
"++++++++@@###@@@@@@@@@###@@@@@@@++++++++",
"++++++++@@###@@###############@@++++++++",
"++++++++@@###@@###############@@++++++++",
"++++++++@@###@@###############@@++++++++",
"++++++++@@###@@###@@@@###@@###@@++++++++",
"++++++++@@###@@###@@@@###@@###@@++++++++",
"++++++++@@###############@@###@@++++++++",
"++++++++@@###############@@###@@++++++++",
"++++++++@@###############@@###@@++++++++",
"++++++++@@########@@@@@@@@@###@@++++++++",
"++++++++@@@@@@@###@@@@@@@@@###@@++++++++",
"++++++++@@@@@@@###@@@@@@@@@###@@++++++++",
"++++++++@@@@@@@###@@@@@@@@@###@@++++++++",
"++++++++@@@@@@@###############@@++++++++",
"++++++++@@@@@@@###############@@++++++++",
"++++++++@@@@@@@###############@@++++++++",
"++++++++@@@@@@@@@@@@@@@@@@@@@@@@++++++++",
"++++++++@@@@@@@@@@@@@@@@@@@@@@@@++++++++",
"++++++++++++++++++++++++++++++++++++++++",
"++++++++++++++++++++++++++++++++++++++++",
"++++++++++++++++++++++++++++++++++++++++",
"++++++++++++++++++++++++++++++++++++++++",
"++++++++++++++++++++++++++++++++++++++++",
"++++++++++++++++++++++++++++++++++++++++",
"++++++++++++++++++++++++++++++++++++++++",
"........................................"};
