/* XPM */
static char * maximize_toggled_prelight_xpm[] = {
"40 40 6 1",
" 	c None",
".	c #000000",
"+	c #654E00",
"@	c #979797",
"#	c #38C500",
"$	c #FFFFFF",
"........................................",
"++++++++++++++++++++++++++++++++++++++++",
"++++++++++++++++++++++++++++++++++++++++",
"++++++++++++++++++++++++++++++++++++++++",
"++++++++++++++++++++++++++++++++++++++++",
"++++++++++++++++++++++++++++++++++++++++",
"++++++++++++++++++++++++++++++++++++++++",
"++++++++++++++++++++++++++++++++++++++++",
"++++++++@@@@@@@@@@@@@@@@@@@@@@@@++++++++",
"++++++++@@@@@@@@@@@@@@@@@@@@@@@@++++++++",
"++++++++@@###############@@@@@@@++++++++",
"++++++++@@###############@@@@@@@++++++++",
"++++++++@@###############@@@@@@@++++++++",
"++++++++@@###$$$$$$$$$###@@@@@@@++++++++",
"++++++++@@###$$$$$$$$$###@@@@@@@++++++++",
"++++++++@@###$$###############@@++++++++",
"++++++++@@###$$###############@@++++++++",
"++++++++@@###$$###############@@++++++++",
"++++++++@@###$$###$$$$###$$###@@++++++++",
"++++++++@@###$$###$$$$###$$###@@++++++++",
"++++++++@@###############$$###@@++++++++",
"++++++++@@###############$$###@@++++++++",
"++++++++@@###############$$###@@++++++++",
"++++++++@@########$$$$$$$$$###@@++++++++",
"++++++++@@@@@@@###$$$$$$$$$###@@++++++++",
"++++++++@@@@@@@###$$$$$$$$$###@@++++++++",
"++++++++@@@@@@@###$$$$$$$$$###@@++++++++",
"++++++++@@@@@@@###############@@++++++++",
"++++++++@@@@@@@###############@@++++++++",
"++++++++@@@@@@@###############@@++++++++",
"++++++++@@@@@@@@@@@@@@@@@@@@@@@@++++++++",
"++++++++@@@@@@@@@@@@@@@@@@@@@@@@++++++++",
"++++++++++++++++++++++++++++++++++++++++",
"++++++++++++++++++++++++++++++++++++++++",
"++++++++++++++++++++++++++++++++++++++++",
"++++++++++++++++++++++++++++++++++++++++",
"++++++++++++++++++++++++++++++++++++++++",
"++++++++++++++++++++++++++++++++++++++++",
"++++++++++++++++++++++++++++++++++++++++",
"........................................"};
