/* XPM */
static char * menu_active_xpm[] = {
"40 40 4 1",
" 	c None",
".	c #000000",
"+	c #654E00",
"@	c #316DF6",
"........................................",
"++++++++++++++++++++++++++++++++++++++++",
"++++++++++++++++++++++++++++++++++++++++",
"++++++++++++++++++++++++++++++++++++++++",
"++++++++++++++++++++++++++++++++++++++++",
"++++++++++++++++++++++++++++++++++++++++",
"++++++++++++++++++++++++++++++++++++++++",
"++++++++++++++++++++++++++++++++++++++++",
"++++++++++++++++++++++++++++++++++++++++",
"++++++++++++++++++++++++++++++++++++++++",
"++++++++++++++++++++++++++++++++++++++++",
"++++++++++++++++++++++++++++++++++++++++",
"++++++++++++++++++++++++++++++++++++++++",
"++++++++++++++++++++++++++++++++++++++++",
"++++++++++++++++++++++++++++++++++++++++",
"+++++++++++++++@@@@@@@@@@+++++++++++++++",
"+++++++++++++++@@@@@@@@@@+++++++++++++++",
"+++++++++++++++@@@@@@@@@@+++++++++++++++",
"+++++++++++++++@@@@@@@@@@+++++++++++++++",
"+++++++++++++++@@@@@@@@@@+++++++++++++++",
"+++++++++++++++@@@@@@@@@@+++++++++++++++",
"+++++++++++++++@@@@@@@@@@+++++++++++++++",
"+++++++++++++++@@@@@@@@@@+++++++++++++++",
"+++++++++++++++@@@@@@@@@@+++++++++++++++",
"+++++++++++++++@@@@@@@@@@+++++++++++++++",
"++++++++++++++++++++++++++++++++++++++++",
"++++++++++++++++++++++++++++++++++++++++",
"++++++++++++++++++++++++++++++++++++++++",
"++++++++++++++++++++++++++++++++++++++++",
"++++++++++++++++++++++++++++++++++++++++",
"++++++++++++++++++++++++++++++++++++++++",
"++++++++++++++++++++++++++++++++++++++++",
"++++++++++++++++++++++++++++++++++++++++",
"++++++++++++++++++++++++++++++++++++++++",
"++++++++++++++++++++++++++++++++++++++++",
"++++++++++++++++++++++++++++++++++++++++",
"++++++++++++++++++++++++++++++++++++++++",
"++++++++++++++++++++++++++++++++++++++++",
"++++++++++++++++++++++++++++++++++++++++",
"........................................"};
