ssl.google-analytics.com:HSTS	0	17395	1513867557570,1,1
addons.cdn.mozilla.net:HSTS	0	17395	1534517157007,1,0
services.addons.mozilla.org:HSTS	2	17429	1537438982167,1,0
addons.mozilla.org:HPKP	1	17395	1508165206800,1,1,WoiWRyIOVNa9ihaBciRSC7XHjliYS9VwUGOIud4PB18=r/mIkG3eEpVdm+u/ko/cwxzOMo1bk4TyHIlByibiA5E=
services.addons.mozilla.org:HPKP	2	17429	1511086982168,1,1,WoiWRyIOVNa9ihaBciRSC7XHjliYS9VwUGOIud4PB18=r/mIkG3eEpVdm+u/ko/cwxzOMo1bk4TyHIlByibiA5E=
blocklist.addons.mozilla.org:HSTS	0	17379	1501590002333,1,0
addons.mozilla.org:HSTS	1	17395	1534517206798,1,0
versioncheck-bg.addons.mozilla.org:HSTS	0	17379	1501589883844,1,0
versioncheck-bg.addons.mozilla.org:HPKP	0	17379	1506773583846,1,1,WoiWRyIOVNa9ihaBciRSC7XHjliYS9VwUGOIud4PB18=r/mIkG3eEpVdm+u/ko/cwxzOMo1bk4TyHIlByibiA5E=
www.gandi.net:HSTS	1	17429	1521671096074,1,0
